{
	"data": [
		{
			"_id": "65wQrvv5j4EmmR7cX",
			"knifeNumber": 183,
			"radius": 12,
			"length": 12,
			"width": 55,
			"lengthBetweenStampsByRapport": 2.15,
			"quantityPerMaterial": 5
		},
		{
			"_id": "y4hYaQd6MLcafigjq",
			"knifeNumber": 308,
			"radius": 1.3,
			"length": 15,
			"width": 10,
			"lengthBetweenStampsByRapport": 3.208,
			"quantityPerMaterial": 5
		},
		{
			"_id": "kupdwhxm695iFmwSn",
			"knifeNumber": 449,
			"radius": 1.3,
			"length": 15,
			"width": 10,
			"lengthBetweenStampsByRapport": 3.97,
			"quantityPerMaterial": 5
		},
		{
			"_id": "HMtWesRCWRT2yp6nN",
			"knifeNumber": 462,
			"radius": 0,
			"length": 15,
			"width": 10,
			"lengthBetweenStampsByRapport": 3.97,
			"quantityPerMaterial": 4
		},
		{
			"_id": "iKncQtfNvaGxjnMmQ",
			"knifeNumber": 535,
			"radius": 1.5,
			"length": 15,
			"width": 15,
			"lengthBetweenStampsByRapport": 2.4625,
			"quantityPerMaterial": 5
		},
		{
			"_id": "GdacRbxHBS7FFHJE7",
			"knifeNumber": 326,
			"radius": 3,
			"length": 15,
			"width": 50,
			"lengthBetweenStampsByRapport": 5.88,
			"quantityPerMaterial": 5
		},
		{
			"_id": "X5WLrLgB7nfELLfqc",
			"knifeNumber": 223,
			"radius": 0,
			"length": 15,
			"width": 190,
			"lengthBetweenStampsByRapport": 38.6,
			"quantityPerMaterial": 5
		},
		{
			"_id": "v6fFwMTb3Ft22CTug",
			"knifeNumber": 96,
			"radius": 0,
			"length": 18,
			"width": 65,
			"lengthBetweenStampsByRapport": 4.85,
			"quantityPerMaterial": 4
		},
		{
			"_id": "sDjMtyfknyAEWaNTY",
			"knifeNumber": 513,
			"radius": 0,
			"length": 18,
			"width": 120,
			"lengthBetweenStampsByRapport": 19.7,
			"quantityPerMaterial": 4
		},
		{
			"_id": "6ToW62aqkm49gbJ5z",
			"knifeNumber": 128,
			"radius": 0,
			"length": 20,
			"width": 10,
			"lengthBetweenStampsByRapport": 2.7,
			"quantityPerMaterial": 4
		},
		{
			"_id": "k5roiBu59YdMu7p25",
			"knifeNumber": 417,
			"radius": 2,
			"length": 20,
			"width": 20,
			"lengthBetweenStampsByRapport": 3.28333,
			"quantityPerMaterial": 4
		},
		{
			"_id": "5kPihcsESNnJS3TPr",
			"knifeNumber": 611,
			"radius": 2,
			"length": 20,
			"width": 92,
			"lengthBetweenStampsByRapport": 9.6,
			"quantityPerMaterial": 4
		},
		{
			"_id": "XcyEbj7pqdr9N23zX",
			"knifeNumber": 438,
			"radius": 2,
			"length": 20,
			"width": 110,
			"lengthBetweenStampsByRapport": 4.3,
			"quantityPerMaterial": 4
		},
		{
			"_id": "yRybLbXkf9mm2FLJQ",
			"knifeNumber": 58,
			"radius": 0,
			"length": 20,
			"width": 130,
			"lengthBetweenStampsByRapport": 9.7,
			"quantityPerMaterial": 3
		},
		{
			"_id": "KK6nnDaZ3NuZG7873",
			"knifeNumber": 387,
			"radius": 2,
			"length": 22,
			"width": 12,
			"lengthBetweenStampsByRapport": 2.2875,
			"quantityPerMaterial": 4
		},
		{
			"_id": "25wR6mT9u2htfffxa",
			"knifeNumber": 540,
			"radius": 0.6,
			"length": 22,
			"width": 25,
			"lengthBetweenStampsByRapport": 2.70909,
			"quantityPerMaterial": 4
		},
		{
			"_id": "c6GywzEDBmvDw8p3c",
			"knifeNumber": 37,
			"radius": 8,
			"length": 24,
			"width": 99,
			"lengthBetweenStampsByRapport": 2.6,
			"quantityPerMaterial": 4
		},
		{
			"_id": "b7EBEmJ46B2HzoeXs",
			"knifeNumber": 161,
			"radius": 0,
			"length": 25,
			"width": 40,
			"lengthBetweenStampsByRapport": 3.54286,
			"quantityPerMaterial": 4
		},
		{
			"_id": "mYK65Q5GyN8xajw5N",
			"knifeNumber": 118,
			"radius": 0,
			"length": 25,
			"width": 135,
			"lengthBetweenStampsByRapport": 4.7,
			"quantityPerMaterial": 4
		},
		{
			"_id": "EFPvvTxQ6kLqJhdH4",
			"knifeNumber": 248,
			"radius": 0,
			"length": 25,
			"width": 150,
			"lengthBetweenStampsByRapport": 2.39999,
			"quantityPerMaterial": 4
		},
		{
			"_id": "25arjiMBD46zcDRmG",
			"knifeNumber": 315,
			"radius": 1,
			"length": 26,
			"width": 67,
			"lengthBetweenStampsByRapport": 2.85,
			"quantityPerMaterial": 5
		},
		{
			"_id": "3tvi635HyRNX3p4eW",
			"knifeNumber": 502,
			"radius": 0,
			"length": 26,
			"width": 130,
			"lengthBetweenStampsByRapport": 9.7,
			"quantityPerMaterial": 4
		},
		{
			"_id": "J4PqDC2NFNrpKJkd6",
			"knifeNumber": 283,
			"radius": 0.6,
			"length": 27,
			"width": 180,
			"lengthBetweenStampsByRapport": 48.6,
			"quantityPerMaterial": 3
		},
		{
			"_id": "r6P5Ah3oD8fSQmHZe",
			"knifeNumber": 51,
			"radius": 3,
			"length": 30,
			"width": 12,
			"lengthBetweenStampsByRapport": 3.24,
			"quantityPerMaterial": 5
		},
		{
			"_id": "2RW5ZzRCS4LXaKtXr",
			"knifeNumber": 286,
			"radius": 0,
			"length": 30,
			"width": 20,
			"lengthBetweenStampsByRapport": 3.28333,
			"quantityPerMaterial": 6
		},
		{
			"_id": "vuZjNQnHwivwNnEBt",
			"knifeNumber": 555,
			"radius": 0.6,
			"length": 30,
			"width": 86,
			"lengthBetweenStampsByRapport": 7.13333,
			"quantityPerMaterial": 3
		},
		{
			"_id": "bZ6dJ5Tp6nesK3WJW",
			"knifeNumber": 330,
			"radius": 2,
			"length": 30,
			"width": 90,
			"lengthBetweenStampsByRapport": 3.13333,
			"quantityPerMaterial": 3
		},
		{
			"_id": "HH9wujtJvGL9JqM3b",
			"knifeNumber": 612,
			"radius": 2,
			"length": 30,
			"width": 111,
			"lengthBetweenStampsByRapport": 3.3,
			"quantityPerMaterial": 3
		},
		{
			"_id": "ELaTqSqWDRRca3q7B",
			"knifeNumber": 422,
			"radius": 1,
			"length": 30,
			"width": 145,
			"lengthBetweenStampsByRapport": 7.39999,
			"quantityPerMaterial": 3
		},
		{
			"_id": "kZ37j7PKcwrvj9wNA",
			"knifeNumber": 425,
			"radius": 1,
			"length": 30,
			"width": 175,
			"lengthBetweenStampsByRapport": 53.6,
			"quantityPerMaterial": 3
		},
		{
			"_id": "bfNnzzpDiyEn8GHdC",
			"knifeNumber": 230,
			"radius": 0,
			"length": 30,
			"width": 190,
			"lengthBetweenStampsByRapport": 38.6,
			"quantityPerMaterial": 5
		},
		{
			"_id": "cd3W75ke9xCFdsbnD",
			"knifeNumber": 585,
			"radius": 0.6,
			"length": 30,
			"width": 327,
			"lengthBetweenStampsByRapport": 3.20001,
			"quantityPerMaterial": 3
		},
		{
			"_id": "LpPkEbgiZSced6rn3",
			"knifeNumber": 168,
			"radius": 0,
			"length": 32,
			"width": 48,
			"lengthBetweenStampsByRapport": 2.8,
			"quantityPerMaterial": 3
		},
		{
			"_id": "bezydq7yQ64sXn5Y3",
			"knifeNumber": 172,
			"radius": 0,
			"length": 32,
			"width": 79,
			"lengthBetweenStampsByRapport": 3.55,
			"quantityPerMaterial": 3
		},
		{
			"_id": "Z4mGGPySXSwMrjTR4",
			"knifeNumber": 113,
			"radius": 0,
			"length": 32,
			"width": 247,
			"lengthBetweenStampsByRapport": 32.4,
			"quantityPerMaterial": 4
		},
		{
			"_id": "nwG4jBA9i8H49jKha",
			"knifeNumber": 296,
			"radius": 2,
			"length": 33,
			"width": 140,
			"lengthBetweenStampsByRapport": 12.4,
			"quantityPerMaterial": 3
		},
		{
			"_id": "JTEwGtGRaJMa4QCKM",
			"knifeNumber": 201,
			"radius": 0,
			"length": 33.5,
			"width": 247,
			"lengthBetweenStampsByRapport": 32.4,
			"quantityPerMaterial": 4
		},
		{
			"_id": "3u8qykjYq5Pb3z7ho",
			"knifeNumber": 342,
			"radius": 1,
			"length": 34.5,
			"width": 234,
			"lengthBetweenStampsByRapport": 45.4,
			"quantityPerMaterial": 3
		},
		{
			"_id": "sbYf3a4XHRa3T3x3M",
			"knifeNumber": 44,
			"radius": 3,
			"length": 35,
			"width": 20,
			"lengthBetweenStampsByRapport": 3.44615,
			"quantityPerMaterial": 2
		},
		{
			"_id": "52nx7gmLKEpQ3nuGs",
			"knifeNumber": 583,
			"radius": 3,
			"length": 35,
			"width": 30,
			"lengthBetweenStampsByRapport": 2.65714,
			"quantityPerMaterial": 3
		},
		{
			"_id": "DKAaBdYYiwBXnBosh",
			"knifeNumber": 506,
			"radius": 0,
			"length": 35,
			"width": 35,
			"lengthBetweenStampsByRapport": 3.1,
			"quantityPerMaterial": 3
		},
		{
			"_id": "PP4ARJpAZevpQruED",
			"knifeNumber": 232,
			"radius": 0,
			"length": 35,
			"width": 150,
			"lengthBetweenStampsByRapport": 2.39999,
			"quantityPerMaterial": 5
		},
		{
			"_id": "NXmENtmoHyJFvFghT",
			"knifeNumber": 92,
			"radius": 0,
			"length": 35,
			"width": 248,
			"lengthBetweenStampsByRapport": 31.4,
			"quantityPerMaterial": 6
		},
		{
			"_id": "vbeYkd3ZKesMuFn8F",
			"knifeNumber": 153,
			"radius": 0,
			"length": 37,
			"width": 106,
			"lengthBetweenStampsByRapport": 4.06667,
			"quantityPerMaterial": 3
		},
		{
			"_id": "PQpR6YrLnCs7HEARo",
			"knifeNumber": 451,
			"radius": 1,
			"length": 37,
			"width": 185,
			"lengthBetweenStampsByRapport": 43.6,
			"quantityPerMaterial": 3
		},
		{
			"_id": "hvFJiraGwDdiYQBPC",
			"knifeNumber": 194,
			"radius": 0,
			"length": 38,
			"width": 52.5,
			"lengthBetweenStampsByRapport": 3.38,
			"quantityPerMaterial": 3
		},
		{
			"_id": "dt2QgTYAr6vk3jXH2",
			"knifeNumber": 512,
			"radius": 2,
			"length": 40,
			"width": 15,
			"lengthBetweenStampsByRapport": 2.58462,
			"quantityPerMaterial": 2
		},
		{
			"_id": "xZjgQM6n298ZmjZrp",
			"knifeNumber": 443,
			"radius": 0.6,
			"length": 40,
			"width": 20,
			"lengthBetweenStampsByRapport": 5.4,
			"quantityPerMaterial": 2
		},
		{
			"_id": "JebhEfkybk7Y4oJ2P",
			"knifeNumber": 490,
			"radius": 2,
			"length": 40,
			"width": 40,
			"lengthBetweenStampsByRapport": 3.54286,
			"quantityPerMaterial": 2
		},
		{
			"_id": "4jbLHK77XSccNAqPY",
			"knifeNumber": 1,
			"radius": 2,
			"length": 40,
			"width": 67,
			"lengthBetweenStampsByRapport": 2.85,
			"quantityPerMaterial": 2
		},
		{
			"_id": "oxtayA93kurzEZCzm",
			"knifeNumber": 2,
			"radius": 2,
			"length": 40,
			"width": 67,
			"lengthBetweenStampsByRapport": 2.85,
			"quantityPerMaterial": 3
		},
		{
			"_id": "ThCpJxTkMKxuASrAX",
			"knifeNumber": 327,
			"radius": 1,
			"length": 40,
			"width": 71,
			"lengthBetweenStampsByRapport": 5.2,
			"quantityPerMaterial": 2
		},
		{
			"_id": "BXt5HPkSYfj4P5ZGR",
			"knifeNumber": 121,
			"radius": 0,
			"length": 40,
			"width": 90,
			"lengthBetweenStampsByRapport": 3.13333,
			"quantityPerMaterial": 3
		},
		{
			"_id": "xCPkcnLLvy86sFm4Y",
			"knifeNumber": 104,
			"radius": 0,
			"length": 40,
			"width": 111.5,
			"lengthBetweenStampsByRapport": 2.8,
			"quantityPerMaterial": 2
		},
		{
			"_id": "Qht8bjGakLY4LAhfP",
			"knifeNumber": 493,
			"radius": 0,
			"length": 40,
			"width": 123.5,
			"lengthBetweenStampsByRapport": 16.2,
			"quantityPerMaterial": 2
		},
		{
			"_id": "aPXqYMh5ja25AuLhu",
			"knifeNumber": 214,
			"radius": 0,
			"length": 40,
			"width": 158,
			"lengthBetweenStampsByRapport": 7.10001,
			"quantityPerMaterial": 5
		},
		{
			"_id": "hvqSzTKXtvrEwxAyu",
			"knifeNumber": 480,
			"radius": 0.6,
			"length": 40,
			"width": 220,
			"lengthBetweenStampsByRapport": 8.60001,
			"quantityPerMaterial": 3
		},
		{
			"_id": "ogTBf2hBmNR7xxEEP",
			"knifeNumber": 556,
			"radius": 0.6,
			"length": 42,
			"width": 98,
			"lengthBetweenStampsByRapport": 3.6,
			"quantityPerMaterial": 2
		},
		{
			"_id": "HSG29BJqadFod74rs",
			"knifeNumber": 20,
			"radius": 2,
			"length": 43,
			"width": 25,
			"lengthBetweenStampsByRapport": 3.575,
			"quantityPerMaterial": 3
		},
		{
			"_id": "3SN9h42eh4ABnMH7J",
			"knifeNumber": 140,
			"radius": 4,
			"length": 44,
			"width": 30,
			"lengthBetweenStampsByRapport": 2.65714,
			"quantityPerMaterial": 3
		},
		{
			"_id": "HMdTN29gSY7KYEo7v",
			"knifeNumber": 352,
			"radius": 2,
			"length": 44,
			"width": 88.5,
			"lengthBetweenStampsByRapport": 4.63333,
			"quantityPerMaterial": 2
		},
		{
			"_id": "xonhGZrrv9osP4Kxv",
			"knifeNumber": 81,
			"radius": 0,
			"length": 44,
			"width": 97,
			"lengthBetweenStampsByRapport": 4.6,
			"quantityPerMaterial": 2
		},
		{
			"_id": "xEXgyjQAxoZwfxc7w",
			"knifeNumber": 43,
			"radius": 3,
			"length": 45,
			"width": 25,
			"lengthBetweenStampsByRapport": 2.94,
			"quantityPerMaterial": 5
		},
		{
			"_id": "TYBa5JTGc9ySDM8Cb",
			"knifeNumber": 191,
			"radius": 3,
			"length": 45,
			"width": 25,
			"lengthBetweenStampsByRapport": 2.94,
			"quantityPerMaterial": 3
		},
		{
			"_id": "DvK3n9jWM9JKYJM6Z",
			"knifeNumber": 491,
			"radius": 0.6,
			"length": 45,
			"width": 53.5,
			"lengthBetweenStampsByRapport": 3.65,
			"quantityPerMaterial": 3
		},
		{
			"_id": "H2P7cwuPHYEQXYhFQ",
			"knifeNumber": 299,
			"radius": 4,
			"length": 45,
			"width": 65,
			"lengthBetweenStampsByRapport": 4.85,
			"quantityPerMaterial": 2
		},
		{
			"_id": "cA99avau5NurBbE3Q",
			"knifeNumber": 366,
			"radius": 0.6,
			"length": 45,
			"width": 70,
			"lengthBetweenStampsByRapport": 6.2,
			"quantityPerMaterial": 4
		},
		{
			"_id": "kKY928oXh88iQv9Zv",
			"knifeNumber": 393,
			"radius": 2,
			"length": 45,
			"width": 130,
			"lengthBetweenStampsByRapport": 9.7,
			"quantityPerMaterial": 2
		},
		{
			"_id": "XcRX86PYwXDQjnRpx",
			"knifeNumber": 426,
			"radius": 0,
			"length": 45,
			"width": 245,
			"lengthBetweenStampsByRapport": 34.4,
			"quantityPerMaterial": 2
		},
		{
			"_id": "Qf3SkRDtd7QGAqS7y",
			"knifeNumber": 314,
			"radius": 0.6,
			"length": 46,
			"width": 202,
			"lengthBetweenStampsByRapport": 26.6,
			"quantityPerMaterial": 2
		},
		{
			"_id": "qrqe4mTso3PZxTuT8",
			"knifeNumber": 331,
			"radius": 2,
			"length": 48,
			"width": 20,
			"lengthBetweenStampsByRapport": 2.86,
			"quantityPerMaterial": 2
		},
		{
			"_id": "MLZS94Yz94EAt3sFS",
			"knifeNumber": 48,
			"radius": 0,
			"length": 48,
			"width": 40,
			"lengthBetweenStampsByRapport": 3.54286,
			"quantityPerMaterial": 5
		},
		{
			"_id": "jBt52Kv2vwNGxcDtq",
			"knifeNumber": 461,
			"radius": 1,
			"length": 48,
			"width": 67,
			"lengthBetweenStampsByRapport": 9.2,
			"quantityPerMaterial": 2
		},
		{
			"_id": "94KJaGtMrJzmftWSS",
			"knifeNumber": 120,
			"radius": 0,
			"length": 48,
			"width": 107,
			"lengthBetweenStampsByRapport": 3.06667,
			"quantityPerMaterial": 3
		},
		{
			"_id": "Ev8pygpabNWsZh3bC",
			"knifeNumber": 182,
			"radius": 3.5,
			"length": 48,
			"width": 145,
			"lengthBetweenStampsByRapport": 7.39999,
			"quantityPerMaterial": 2
		},
		{
			"_id": "dTL9afSLqZWMmxHug",
			"knifeNumber": 166,
			"radius": 0,
			"length": 48,
			"width": 262,
			"lengthBetweenStampsByRapport": 17.4,
			"quantityPerMaterial": 2
		},
		{
			"_id": "s2QRWmWFCiE8J4xRy",
			"knifeNumber": 549,
			"radius": 1,
			"length": 49,
			"width": 150,
			"lengthBetweenStampsByRapport": 2.39999,
			"quantityPerMaterial": 2
		},
		{
			"_id": "JLrApQ3HZf54xQaMa",
			"knifeNumber": 522,
			"radius": 1,
			"length": 50,
			"width": 6,
			"lengthBetweenStampsByRapport": 2.79231,
			"quantityPerMaterial": 2
		},
		{
			"_id": "DHFWyQHNPKJG3P7E4",
			"knifeNumber": 321,
			"radius": 3,
			"length": 50,
			"width": 30,
			"lengthBetweenStampsByRapport": 4.925,
			"quantityPerMaterial": 2
		},
		{
			"_id": "YQWvXzBCP82CiA4vi",
			"knifeNumber": 543,
			"radius": 2,
			"length": 50,
			"width": 35,
			"lengthBetweenStampsByRapport": 4.91428,
			"quantityPerMaterial": 2
		},
		{
			"_id": "FBPomM498MauBmWBm",
			"knifeNumber": 332,
			"radius": 6,
			"length": 50,
			"width": 40,
			"lengthBetweenStampsByRapport": 3.54286,
			"quantityPerMaterial": 2
		},
		{
			"_id": "qhFFNxkZ9jQQdmd29",
			"knifeNumber": 70,
			"radius": 3,
			"length": 50,
			"width": 70,
			"lengthBetweenStampsByRapport": 6.2,
			"quantityPerMaterial": 2
		},
		{
			"_id": "8mH48Aj55nNFCtvyM",
			"knifeNumber": 486,
			"radius": 3,
			"length": 50,
			"width": 78,
			"lengthBetweenStampsByRapport": 4.55,
			"quantityPerMaterial": 2
		},
		{
			"_id": "dSXJe3wZnNXmWb6Pf",
			"knifeNumber": 486,
			"radius": 3,
			"length": 50,
			"width": 78,
			"lengthBetweenStampsByRapport": 4.55,
			"quantityPerMaterial": 2
		},
		{
			"_id": "AMZGosCdbnBcprxxw",
			"knifeNumber": 195,
			"radius": 0,
			"length": 50,
			"width": 80,
			"lengthBetweenStampsByRapport": 2.55,
			"quantityPerMaterial": 2
		},
		{
			"_id": "LnfQrZ9Q8REFHKXXc",
			"knifeNumber": 8,
			"radius": 0,
			"length": 50,
			"width": 90,
			"lengthBetweenStampsByRapport": 3.13333,
			"quantityPerMaterial": 3
		},
		{
			"_id": "EhQWGLMytc2E8Q8yF",
			"knifeNumber": 122,
			"radius": 0,
			"length": 50,
			"width": 95,
			"lengthBetweenStampsByRapport": 6.6,
			"quantityPerMaterial": 3
		},
		{
			"_id": "2Lst2dw8ntZsWhYZY",
			"knifeNumber": 333,
			"radius": 4,
			"length": 50,
			"width": 99,
			"lengthBetweenStampsByRapport": 2.6,
			"quantityPerMaterial": 2
		},
		{
			"_id": "zqazQKwrmqtyjr55a",
			"knifeNumber": 41,
			"radius": 0,
			"length": 50,
			"width": 110,
			"lengthBetweenStampsByRapport": 4.3,
			"quantityPerMaterial": 4
		},
		{
			"_id": "ZeMTYDtwcxK3cAxo6",
			"knifeNumber": 552,
			"radius": 2,
			"length": 50,
			"width": 110,
			"lengthBetweenStampsByRapport": 4.3,
			"quantityPerMaterial": 2
		},
		{
			"_id": "3iBpjcKP5G7evyGxR",
			"knifeNumber": 302,
			"radius": 1,
			"length": 50,
			"width": 160,
			"lengthBetweenStampsByRapport": 5.10001,
			"quantityPerMaterial": 2
		},
		{
			"_id": "DoQvoCe2CwDnFyzk8",
			"knifeNumber": 227,
			"radius": 0,
			"length": 50,
			"width": 190,
			"lengthBetweenStampsByRapport": 38.6,
			"quantityPerMaterial": 2
		},
		{
			"_id": "9mEjXzwLr8FXn7DmD",
			"knifeNumber": 206,
			"radius": 0,
			"length": 50,
			"width": 275,
			"lengthBetweenStampsByRapport": 4.39999,
			"quantityPerMaterial": 4
		},
		{
			"_id": "e8WcZD7zzKMLNjkzC",
			"knifeNumber": 334,
			"radius": 5,
			"length": 51,
			"width": 51,
			"lengthBetweenStampsByRapport": 4.88,
			"quantityPerMaterial": 2
		},
		{
			"_id": "jSCn5ewuSZGFhHpM2",
			"knifeNumber": 384,
			"radius": 3,
			"length": 51,
			"width": 76,
			"lengthBetweenStampsByRapport": 6.55,
			"quantityPerMaterial": 2
		},
		{
			"_id": "ctMpxqgzxYhQZ7uEe",
			"knifeNumber": 528,
			"radius": 0,
			"length": 52,
			"width": 52,
			"lengthBetweenStampsByRapport": 5.15,
			"quantityPerMaterial": 2
		},
		{
			"_id": "Ng6Qg9biW6ed2cbPp",
			"knifeNumber": 442,
			"radius": 1,
			"length": 52,
			"width": 130,
			"lengthBetweenStampsByRapport": 9.7,
			"quantityPerMaterial": 2
		},
		{
			"_id": "McqvrDt7PwCSEbAqr",
			"knifeNumber": 441,
			"radius": 1,
			"length": 52,
			"width": 150,
			"lengthBetweenStampsByRapport": 2.39999,
			"quantityPerMaterial": 2
		},
		{
			"_id": "iY9AcYTXftAZN44GC",
			"knifeNumber": 439,
			"radius": 1,
			"length": 52,
			"width": 190,
			"lengthBetweenStampsByRapport": 38.6,
			"quantityPerMaterial": 2
		},
		{
			"_id": "eELMvKPHuHiQ4DXMw",
			"knifeNumber": 217,
			"radius": 3,
			"length": 54,
			"width": 73,
			"lengthBetweenStampsByRapport": 3.2,
			"quantityPerMaterial": 3
		},
		{
			"_id": "BHKTtFum8d9SQTGdY",
			"knifeNumber": 561,
			"radius": 2,
			"length": 55,
			"width": 30,
			"lengthBetweenStampsByRapport": 4.925,
			"quantityPerMaterial": 2
		},
		{
			"_id": "DmQizM9B2wN5XgrND",
			"knifeNumber": 516,
			"radius": 2,
			"length": 55,
			"width": 65,
			"lengthBetweenStampsByRapport": 4.85,
			"quantityPerMaterial": 2
		},
		{
			"_id": "3R9xXPfkqzqgzgwos",
			"knifeNumber": 119,
			"radius": 0,
			"length": 55,
			"width": 95,
			"lengthBetweenStampsByRapport": 6.6,
			"quantityPerMaterial": 4
		},
		{
			"_id": "bzgML7hZfXZHg9ux3",
			"knifeNumber": 247,
			"radius": 0,
			"length": 55,
			"width": 110,
			"lengthBetweenStampsByRapport": 4.3,
			"quantityPerMaterial": 3
		},
		{
			"_id": "2rWQutDAQssxP6e4T",
			"knifeNumber": 494,
			"radius": 2,
			"length": 55,
			"width": 125,
			"lengthBetweenStampsByRapport": 14.7,
			"quantityPerMaterial": 2
		},
		{
			"_id": "bKN7o7Qhoj6jQK6Ym",
			"knifeNumber": 340,
			"radius": 2,
			"length": 55,
			"width": 135,
			"lengthBetweenStampsByRapport": 4.7,
			"quantityPerMaterial": 2
		},
		{
			"_id": "9QRuQFW78LrHDydxv",
			"knifeNumber": 233,
			"radius": 0,
			"length": 55,
			"width": 150,
			"lengthBetweenStampsByRapport": 2.39999,
			"quantityPerMaterial": 4
		},
		{
			"_id": "dbqm6xHGopHekJEDX",
			"knifeNumber": 354,
			"radius": 0.6,
			"length": 55,
			"width": 190,
			"lengthBetweenStampsByRapport": 38.6,
			"quantityPerMaterial": 2
		},
		{
			"_id": "SP5TqJLkcTNbePDrz",
			"knifeNumber": 394,
			"radius": 2,
			"length": 56,
			"width": 56,
			"lengthBetweenStampsByRapport": 4.96,
			"quantityPerMaterial": 2
		},
		{
			"_id": "jPscggkCnJtYeimgK",
			"knifeNumber": 392,
			"radius": 1,
			"length": 56,
			"width": 120,
			"lengthBetweenStampsByRapport": 19.7,
			"quantityPerMaterial": 2
		},
		{
			"_id": "utqiAk32CDYbhG7oZ",
			"knifeNumber": 379,
			"radius": 2,
			"length": 57,
			"width": 90,
			"lengthBetweenStampsByRapport": 3.13333,
			"quantityPerMaterial": 2
		},
		{
			"_id": "ycT9ZSDGCau2eyHrs",
			"knifeNumber": 509,
			"radius": 0.6,
			"length": 57,
			"width": 111,
			"lengthBetweenStampsByRapport": 3.3,
			"quantityPerMaterial": 2
		},
		{
			"_id": "oKXTtFZ9SYR7PHF8k",
			"knifeNumber": 257,
			"radius": 2,
			"length": 57,
			"width": 224,
			"lengthBetweenStampsByRapport": 4.60001,
			"quantityPerMaterial": 2
		},
		{
			"_id": "3AxXQ8GTCEoKSsSq3",
			"knifeNumber": 18,
			"radius": 0,
			"length": 58,
			"width": 30,
			"lengthBetweenStampsByRapport": 2.65714,
			"quantityPerMaterial": 2
		},
		{
			"_id": "9rJ5vFtzzxXmmG87C",
			"knifeNumber": 90,
			"radius": 0,
			"length": 58,
			"width": 30,
			"lengthBetweenStampsByRapport": 2.65714,
			"quantityPerMaterial": 3
		},
		{
			"_id": "JBHhr2rHs6nxAz5So",
			"knifeNumber": 19,
			"radius": 3,
			"length": 58,
			"width": 40,
			"lengthBetweenStampsByRapport": 3.54286,
			"quantityPerMaterial": 2
		},
		{
			"_id": "ZdwpYcE9Hz6WnpYnA",
			"knifeNumber": 91,
			"radius": 0,
			"length": 58,
			"width": 58.8,
			"lengthBetweenStampsByRapport": 2.16,
			"quantityPerMaterial": 2
		},
		{
			"_id": "7BEhiKu7WCzMkHaTc",
			"knifeNumber": 139,
			"radius": 2,
			"length": 58,
			"width": 58.8,
			"lengthBetweenStampsByRapport": 2.16,
			"quantityPerMaterial": 3
		},
		{
			"_id": "MFjotc2xJgJM3BCE6",
			"knifeNumber": 523,
			"radius": 3,
			"length": 58,
			"width": 70,
			"lengthBetweenStampsByRapport": 6.2,
			"quantityPerMaterial": 2
		},
		{
			"_id": "G2NPthYeGPxLMzjoK",
			"knifeNumber": 444,
			"radius": 10,
			"length": 58,
			"width": 75,
			"lengthBetweenStampsByRapport": 7.55,
			"quantityPerMaterial": 2
		},
		{
			"_id": "W3mKSYWp72F9FcJ4y",
			"knifeNumber": 341,
			"radius": 1,
			"length": 58,
			"width": 107,
			"lengthBetweenStampsByRapport": 3.06667,
			"quantityPerMaterial": 2
		},
		{
			"_id": "JJP6sCLi6Lk8THkSk",
			"knifeNumber": 329,
			"radius": 2,
			"length": 58,
			"width": 109,
			"lengthBetweenStampsByRapport": 5.3,
			"quantityPerMaterial": 2
		},
		{
			"_id": "8QWfyjRBDbEmBhN2s",
			"knifeNumber": 72,
			"radius": 3,
			"length": 60,
			"width": 41,
			"lengthBetweenStampsByRapport": 2.54286,
			"quantityPerMaterial": 2
		},
		{
			"_id": "awpyupBX5mGA8nbjB",
			"knifeNumber": 492,
			"radius": 1,
			"length": 60,
			"width": 43,
			"lengthBetweenStampsByRapport": 3.56667,
			"quantityPerMaterial": 2
		},
		{
			"_id": "72Z9zvwKMDcZPAHc3",
			"knifeNumber": 189,
			"radius": 0,
			"length": 60,
			"width": 46,
			"lengthBetweenStampsByRapport": 4.8,
			"quantityPerMaterial": 2
		},
		{
			"_id": "cHzcQp4pG74dDovD4",
			"knifeNumber": 281,
			"radius": 0,
			"length": 60,
			"width": 49,
			"lengthBetweenStampsByRapport": 6.03334,
			"quantityPerMaterial": 2
		},
		{
			"_id": "AdzGwKyuNPpMcEYvp",
			"knifeNumber": 304,
			"radius": 0,
			"length": 60,
			"width": 65,
			"lengthBetweenStampsByRapport": 4.85,
			"quantityPerMaterial": 3
		},
		{
			"_id": "ZNEbo78WKbT2uqmc3",
			"knifeNumber": 378,
			"radius": 1,
			"length": 60,
			"width": 65,
			"lengthBetweenStampsByRapport": 4.85,
			"quantityPerMaterial": 2
		},
		{
			"_id": "vaquWKbBt4eaL94KL",
			"knifeNumber": 213,
			"radius": 3,
			"length": 60,
			"width": 70,
			"lengthBetweenStampsByRapport": 6.2,
			"quantityPerMaterial": 2
		},
		{
			"_id": "zLjJZiWkJQS37vc3p",
			"knifeNumber": 137,
			"radius": 0,
			"length": 60,
			"width": 77,
			"lengthBetweenStampsByRapport": 5.55,
			"quantityPerMaterial": 2
		},
		{
			"_id": "Apzmb8q7fN2Cj6C4u",
			"knifeNumber": 52,
			"radius": 0,
			"length": 60,
			"width": 80,
			"lengthBetweenStampsByRapport": 2.55,
			"quantityPerMaterial": 2
		},
		{
			"_id": "sFrTm3PYP4t2JCwXf",
			"knifeNumber": 176,
			"radius": 4,
			"length": 60,
			"width": 90,
			"lengthBetweenStampsByRapport": 3.13333,
			"quantityPerMaterial": 2
		},
		{
			"_id": "qhPJYNEWX8NeHcLWC",
			"knifeNumber": 600,
			"radius": 1,
			"length": 60,
			"width": 99,
			"lengthBetweenStampsByRapport": 2.6,
			"quantityPerMaterial": 2
		},
		{
			"_id": "WmamwJSYtSLzdqpJC",
			"knifeNumber": 184,
			"radius": 0,
			"length": 60,
			"width": 146,
			"lengthBetweenStampsByRapport": 6.39999,
			"quantityPerMaterial": 2
		},
		{
			"_id": "2BPefrvFiCYRw4bZq",
			"knifeNumber": 238,
			"radius": 0,
			"length": 60,
			"width": 250,
			"lengthBetweenStampsByRapport": 29.4,
			"quantityPerMaterial": 2
		},
		{
			"_id": "Gb3YbfKigYZaKWbQh",
			"knifeNumber": 599,
			"radius": 1,
			"length": 62,
			"width": 62,
			"lengthBetweenStampsByRapport": 4.04,
			"quantityPerMaterial": 2
		},
		{
			"_id": "xNaFZ9tSQe9wwCzXb",
			"knifeNumber": 93,
			"radius": 0,
			"length": 64,
			"width": 77,
			"lengthBetweenStampsByRapport": 5.55,
			"quantityPerMaterial": 2
		},
		{
			"_id": "fwXAYejC7m67t3tDo",
			"knifeNumber": 300,
			"radius": 1,
			"length": 65,
			"width": 16,
			"lengthBetweenStampsByRapport": 3.05,
			"quantityPerMaterial": 2
		},
		{
			"_id": "DokwPWrPbXMZKkgqA",
			"knifeNumber": 209,
			"radius": 0,
			"length": 65,
			"width": 90,
			"lengthBetweenStampsByRapport": 3.13333,
			"quantityPerMaterial": 3
		},
		{
			"_id": "sJQb47oczGpoQD5Jy",
			"knifeNumber": 382,
			"radius": 0,
			"length": 65,
			"width": 107,
			"lengthBetweenStampsByRapport": 3.06667,
			"quantityPerMaterial": 2
		},
		{
			"_id": "nBrFHqWrTJ66bJzxx",
			"knifeNumber": 190,
			"radius": 0,
			"length": 65,
			"width": 110,
			"lengthBetweenStampsByRapport": 4.3,
			"quantityPerMaterial": 2
		},
		{
			"_id": "NNeMtmbipDvtp8Hty",
			"knifeNumber": 271,
			"radius": 2,
			"length": 65,
			"width": 110,
			"lengthBetweenStampsByRapport": 4.3,
			"quantityPerMaterial": 2
		},
		{
			"_id": "ZJhe6crAkowLF6yWH",
			"knifeNumber": 380,
			"radius": 2,
			"length": 66,
			"width": 66,
			"lengthBetweenStampsByRapport": 3.85,
			"quantityPerMaterial": 2
		},
		{
			"_id": "d7jBjE2tGn5ioQ2MD",
			"knifeNumber": 427,
			"radius": 2,
			"length": 67,
			"width": 42,
			"lengthBetweenStampsByRapport": 3.72,
			"quantityPerMaterial": 2
		},
		{
			"_id": "icsQfBkmKjQEk2RdK",
			"knifeNumber": 142,
			"radius": 0,
			"length": 67,
			"width": 56,
			"lengthBetweenStampsByRapport": 4.96,
			"quantityPerMaterial": 2
		},
		{
			"_id": "5wx4agxpxi8JjFMuh",
			"knifeNumber": 297,
			"radius": 4.23,
			"length": 67,
			"width": 67,
			"lengthBetweenStampsByRapport": 9.2,
			"quantityPerMaterial": 2
		},
		{
			"_id": "SnmFqGBwrtBcEtLGw",
			"knifeNumber": 508,
			"radius": 5,
			"length": 67,
			"width": 140,
			"lengthBetweenStampsByRapport": 12.4,
			"quantityPerMaterial": 2
		},
		{
			"_id": "DuZC5M8zMByADXxGS",
			"knifeNumber": 582,
			"radius": 1.5,
			"length": 68,
			"width": 54,
			"lengthBetweenStampsByRapport": 3.15,
			"quantityPerMaterial": 2
		},
		{
			"_id": "4BQvY6ZiKaKZdLkvT",
			"knifeNumber": 11,
			"radius": 2,
			"length": 68,
			"width": 72,
			"lengthBetweenStampsByRapport": 4.2,
			"quantityPerMaterial": 2
		},
		{
			"_id": "PCuoeWn83NKWpqK8B",
			"knifeNumber": 263,
			"radius": 2,
			"length": 68,
			"width": 160,
			"lengthBetweenStampsByRapport": 5.10001,
			"quantityPerMaterial": 2
		},
		{
			"_id": "mSLPqQXEtWHbADnRS",
			"knifeNumber": 89,
			"radius": 2,
			"length": 70,
			"width": 32,
			"lengthBetweenStampsByRapport": 2.925,
			"quantityPerMaterial": 2
		},
		{
			"_id": "YMEcHpe2eYpijBmYj",
			"knifeNumber": 579,
			"radius": 1.5,
			"length": 70,
			"width": 68,
			"lengthBetweenStampsByRapport": 8.2,
			"quantityPerMaterial": 2
		},
		{
			"_id": "9utJtLFgtxEYsgJw3",
			"knifeNumber": 594,
			"radius": 2,
			"length": 70,
			"width": 70,
			"lengthBetweenStampsByRapport": 6.2,
			"quantityPerMaterial": 2
		},
		{
			"_id": "3oLriCPNFkpnzpwbS",
			"knifeNumber": 13,
			"radius": 3.5,
			"length": 70,
			"width": 97,
			"lengthBetweenStampsByRapport": 4.6,
			"quantityPerMaterial": 2
		},
		{
			"_id": "PPrc5cW9GpJ5uynB5",
			"knifeNumber": 264,
			"radius": 2,
			"length": 70,
			"width": 130,
			"lengthBetweenStampsByRapport": 9.7,
			"quantityPerMaterial": 2
		},
		{
			"_id": "DzWdyoBGQu3FfWaXZ",
			"knifeNumber": 309,
			"radius": 2,
			"length": 70,
			"width": 152,
			"lengthBetweenStampsByRapport": 13.1,
			"quantityPerMaterial": 2
		},
		{
			"_id": "nSTkQoP9acNMPctEQ",
			"knifeNumber": 47,
			"radius": 0,
			"length": 70,
			"width": 162,
			"lengthBetweenStampsByRapport": 3.10001,
			"quantityPerMaterial": 2
		},
		{
			"_id": "3gKXsFqama4EwGBwc",
			"knifeNumber": 598,
			"radius": 0.6,
			"length": 72,
			"width": 90,
			"lengthBetweenStampsByRapport": 3.13333,
			"quantityPerMaterial": 2
		},
		{
			"_id": "ddroyLXaqk4yDayQa",
			"knifeNumber": 82,
			"radius": 0,
			"length": 72,
			"width": 111.5,
			"lengthBetweenStampsByRapport": 2.8,
			"quantityPerMaterial": 2
		},
		{
			"_id": "Rm26hr2vWskKkQZQg",
			"knifeNumber": 30,
			"radius": 15,
			"length": 73,
			"width": 103,
			"lengthBetweenStampsByRapport": 7.06667,
			"quantityPerMaterial": 2
		},
		{
			"_id": "2uy54eyQvKppQ4FFg",
			"knifeNumber": 571,
			"radius": 2,
			"length": 75,
			"width": 30,
			"lengthBetweenStampsByRapport": 2.65714,
			"quantityPerMaterial": 2
		},
		{
			"_id": "fyfjQKyBJwBTDQbT7",
			"knifeNumber": 69,
			"radius": 0,
			"length": 75,
			"width": 54,
			"lengthBetweenStampsByRapport": 3.15,
			"quantityPerMaterial": 2
		},
		{
			"_id": "35nQZ5wEL2eKTreP7",
			"knifeNumber": 405,
			"radius": 2,
			"length": 75,
			"width": 67,
			"lengthBetweenStampsByRapport": 2.85,
			"quantityPerMaterial": 2
		},
		{
			"_id": "kfxd7vvrR2NEF3n9f",
			"knifeNumber": 595,
			"radius": 2,
			"length": 75,
			"width": 75,
			"lengthBetweenStampsByRapport": 7.55,
			"quantityPerMaterial": 2
		},
		{
			"_id": "b6D5pWHJLDWasxCmE",
			"knifeNumber": 288,
			"radius": 8,
			"length": 75,
			"width": 90,
			"lengthBetweenStampsByRapport": 3.13333,
			"quantityPerMaterial": 2
		},
		{
			"_id": "MvZSnLPaKGdtkDbRw",
			"knifeNumber": 401,
			"radius": 3,
			"length": 75,
			"width": 105,
			"lengthBetweenStampsByRapport": 5.06667,
			"quantityPerMaterial": 2
		},
		{
			"_id": "E3MCfXroBnXXisATY",
			"knifeNumber": 266,
			"radius": 28.5,
			"length": 75,
			"width": 111,
			"lengthBetweenStampsByRapport": 3.3,
			"quantityPerMaterial": 2
		},
		{
			"_id": "d9QFioWem2jACmuz9",
			"knifeNumber": 402,
			"radius": 2,
			"length": 75,
			"width": 120,
			"lengthBetweenStampsByRapport": 19.7,
			"quantityPerMaterial": 2
		},
		{
			"_id": "Wfq4zyYaJJEcLnduT",
			"knifeNumber": 65,
			"radius": 12,
			"length": 75,
			"width": 125,
			"lengthBetweenStampsByRapport": 14.7,
			"quantityPerMaterial": 1
		},
		{
			"_id": "PCSbPzP78bgXzEhib",
			"knifeNumber": 249,
			"radius": 0,
			"length": 75,
			"width": 200,
			"lengthBetweenStampsByRapport": 28.6,
			"quantityPerMaterial": 2
		},
		{
			"_id": "BxESCqdz5cjJDgdxp",
			"knifeNumber": 241,
			"radius": 0,
			"length": 75,
			"width": 280,
			"lengthBetweenStampsByRapport": 24.8,
			"quantityPerMaterial": 2
		},
		{
			"_id": "zP4BdbDK9tWbHRErc",
			"knifeNumber": 558,
			"radius": 2,
			"length": 76,
			"width": 120,
			"lengthBetweenStampsByRapport": 19.7,
			"quantityPerMaterial": 2
		},
		{
			"_id": "H7LA8KYjkovKT2qpv",
			"knifeNumber": 368,
			"radius": 3,
			"length": 77,
			"width": 35,
			"lengthBetweenStampsByRapport": 3.1,
			"quantityPerMaterial": 2
		},
		{
			"_id": "H2HnnpbgYoqankuq9",
			"knifeNumber": 386,
			"radius": 2.5,
			"length": 77,
			"width": 47,
			"lengthBetweenStampsByRapport": 3.8,
			"quantityPerMaterial": 1
		},
		{
			"_id": "PSqpwELKh4fAudt5w",
			"knifeNumber": 470,
			"radius": 1,
			"length": 77,
			"width": 270,
			"lengthBetweenStampsByRapport": 9.39999,
			"quantityPerMaterial": 2
		},
		{
			"_id": "CmYoH7fDv48BTsLps",
			"knifeNumber": 385,
			"radius": 0,
			"length": 78,
			"width": 32,
			"lengthBetweenStampsByRapport": 6.1,
			"quantityPerMaterial": 1
		},
		{
			"_id": "ANtNkCm3pSyXqqXmY",
			"knifeNumber": 487,
			"radius": 3,
			"length": 78,
			"width": 78,
			"lengthBetweenStampsByRapport": 4.55,
			"quantityPerMaterial": 1
		},
		{
			"_id": "C2tGxNZZxNGuDd6Yz",
			"knifeNumber": 581,
			"radius": 1.5,
			"length": 78,
			"width": 100,
			"lengthBetweenStampsByRapport": 10.0667,
			"quantityPerMaterial": 2
		},
		{
			"_id": "PbCXTPmtCSpbQ6unb",
			"knifeNumber": 99,
			"radius": 3,
			"length": 80,
			"width": 35,
			"lengthBetweenStampsByRapport": 3.1,
			"quantityPerMaterial": 1
		},
		{
			"_id": "MadxuhTWkMet5PDJH",
			"knifeNumber": 109,
			"radius": 3,
			"length": 80,
			"width": 58.8,
			"lengthBetweenStampsByRapport": 2.16,
			"quantityPerMaterial": 2
		},
		{
			"_id": "GKZALaqdzPAbkEjSb",
			"knifeNumber": 531,
			"radius": 1,
			"length": 80,
			"width": 65,
			"lengthBetweenStampsByRapport": 4.85,
			"quantityPerMaterial": 1
		},
		{
			"_id": "rBwPxRyAecHCMqkCJ",
			"knifeNumber": 485,
			"radius": 2,
			"length": 80,
			"width": 70,
			"lengthBetweenStampsByRapport": 6.2,
			"quantityPerMaterial": 2
		},
		{
			"_id": "G9AK4WxtBmzdKMtpY",
			"knifeNumber": 62,
			"radius": 0,
			"length": 80,
			"width": 90,
			"lengthBetweenStampsByRapport": 3.13333,
			"quantityPerMaterial": 1
		},
		{
			"_id": "EPBNEDDbjgwvFQv9X",
			"knifeNumber": 173,
			"radius": 0,
			"length": 80,
			"width": 99,
			"lengthBetweenStampsByRapport": 2.6,
			"quantityPerMaterial": 2
		},
		{
			"_id": "q2QdMEwywNcXKzeFp",
			"knifeNumber": 88,
			"radius": 0,
			"length": 80,
			"width": 106,
			"lengthBetweenStampsByRapport": 4.06667,
			"quantityPerMaterial": 2
		},
		{
			"_id": "yxcF625b6n8XvSPw2",
			"knifeNumber": 193,
			"radius": 3,
			"length": 80,
			"width": 110,
			"lengthBetweenStampsByRapport": 4.3,
			"quantityPerMaterial": 2
		},
		{
			"_id": "88sFqc6hChkhB73sM",
			"knifeNumber": 265,
			"radius": 2,
			"length": 80,
			"width": 120,
			"lengthBetweenStampsByRapport": 19.7,
			"quantityPerMaterial": 2
		},
		{
			"_id": "YBgL5X22f9GRTH9mZ",
			"knifeNumber": 420,
			"radius": 3,
			"length": 80,
			"width": 190,
			"lengthBetweenStampsByRapport": 38.6,
			"quantityPerMaterial": 2
		},
		{
			"_id": "Kt6PNGEvKbxDkqFKM",
			"knifeNumber": 404,
			"radius": 2,
			"length": 80,
			"width": 220,
			"lengthBetweenStampsByRapport": 8.60001,
			"quantityPerMaterial": 2
		},
		{
			"_id": "j69Cf7ZrW7PaLfHjq",
			"knifeNumber": 303,
			"radius": 1,
			"length": 82.5,
			"width": 61,
			"lengthBetweenStampsByRapport": 5.04,
			"quantityPerMaterial": 2
		},
		{
			"_id": "ptPhLCcpGoKeFSZAy",
			"knifeNumber": 530,
			"radius": 1,
			"length": 83,
			"width": 52,
			"lengthBetweenStampsByRapport": 5.15,
			"quantityPerMaterial": 1
		},
		{
			"_id": "woowF63GMratKuWRZ",
			"knifeNumber": 234,
			"radius": 0,
			"length": 83,
			"width": 105,
			"lengthBetweenStampsByRapport": 5.06667,
			"quantityPerMaterial": 2
		},
		{
			"_id": "dLN6qXWwELJ9eX5CF",
			"knifeNumber": 440,
			"radius": 1,
			"length": 84,
			"width": 120,
			"lengthBetweenStampsByRapport": 19.7,
			"quantityPerMaterial": 1
		},
		{
			"_id": "LCWL5nhcTDcA5RTzo",
			"knifeNumber": 186,
			"radius": 3,
			"length": 85,
			"width": 20,
			"lengthBetweenStampsByRapport": 2.86,
			"quantityPerMaterial": 2
		},
		{
			"_id": "m7h6GNrG5pABgNQpL",
			"knifeNumber": 111,
			"radius": 0,
			"length": 85,
			"width": 65,
			"lengthBetweenStampsByRapport": 4.85,
			"quantityPerMaterial": 2
		},
		{
			"_id": "xWuG2YawP6yoLje7g",
			"knifeNumber": 305,
			"radius": 2,
			"length": 85,
			"width": 69.5,
			"lengthBetweenStampsByRapport": 6.7,
			"quantityPerMaterial": 2
		},
		{
			"_id": "zYoJkmAFZNS8zLzvW",
			"knifeNumber": 568,
			"radius": 2,
			"length": 85,
			"width": 124,
			"lengthBetweenStampsByRapport": 15.7,
			"quantityPerMaterial": 1
		},
		{
			"_id": "cARsLxRrChuFwWwtb",
			"knifeNumber": 203,
			"radius": 3,
			"length": 85,
			"width": 224,
			"lengthBetweenStampsByRapport": 4.60001,
			"quantityPerMaterial": 2
		},
		{
			"_id": "TttCy7BSguGPQDmDa",
			"knifeNumber": 279,
			"radius": 0,
			"length": 87,
			"width": 42,
			"lengthBetweenStampsByRapport": 3.72,
			"quantityPerMaterial": 1
		},
		{
			"_id": "nfTjQxZXbXgpj7v4r",
			"knifeNumber": 86,
			"radius": 0,
			"length": 90,
			"width": 40,
			"lengthBetweenStampsByRapport": 3.54286,
			"quantityPerMaterial": 1
		},
		{
			"_id": "Gmfx9xMjs5sBye8QN",
			"knifeNumber": 115,
			"radius": 0,
			"length": 90,
			"width": 44,
			"lengthBetweenStampsByRapport": 2.56667,
			"quantityPerMaterial": 1
		},
		{
			"_id": "E56nkX3FGESivtRkJ",
			"knifeNumber": 9,
			"radius": 0,
			"length": 90,
			"width": 50,
			"lengthBetweenStampsByRapport": 5.88,
			"quantityPerMaterial": 2
		},
		{
			"_id": "9JezKqiTo3JogW7tu",
			"knifeNumber": 27,
			"radius": 0,
			"length": 90,
			"width": 65,
			"lengthBetweenStampsByRapport": 4.85,
			"quantityPerMaterial": 1
		},
		{
			"_id": "i2anooezox6hKqiHn",
			"knifeNumber": 27,
			"radius": 0,
			"length": 90,
			"width": 65,
			"lengthBetweenStampsByRapport": 4.85,
			"quantityPerMaterial": 2
		},
		{
			"_id": "zCRW8vqZAnRCKscRh",
			"knifeNumber": 174,
			"radius": 0,
			"length": 90,
			"width": 90,
			"lengthBetweenStampsByRapport": 3.13333,
			"quantityPerMaterial": 2
		},
		{
			"_id": "Q7h7KftDNDhoZgQPb",
			"knifeNumber": 484,
			"radius": 2,
			"length": 90,
			"width": 108,
			"lengthBetweenStampsByRapport": 6.3,
			"quantityPerMaterial": 2
		},
		{
			"_id": "Fzh2FxDJ9XxcGLGAL",
			"knifeNumber": 163,
			"radius": 3,
			"length": 90,
			"width": 130,
			"lengthBetweenStampsByRapport": 9.7,
			"quantityPerMaterial": 1
		},
		{
			"_id": "AJs5NvmwhhBHEddHk",
			"knifeNumber": 592,
			"radius": 2,
			"length": 90,
			"width": 160,
			"lengthBetweenStampsByRapport": 5.10001,
			"quantityPerMaterial": 2
		},
		{
			"_id": "r2p2sg2jeCeGizhcj",
			"knifeNumber": 419,
			"radius": 3,
			"length": 90,
			"width": 180,
			"lengthBetweenStampsByRapport": 48.6,
			"quantityPerMaterial": 2
		},
		{
			"_id": "Gywfedn29qF6Hhm23",
			"knifeNumber": 399,
			"radius": 1,
			"length": 90,
			"width": 250,
			"lengthBetweenStampsByRapport": 29.4,
			"quantityPerMaterial": 1
		},
		{
			"_id": "TKXhyraPtAnRGPPwP",
			"knifeNumber": 306,
			"radius": 1,
			"length": 93,
			"width": 86,
			"lengthBetweenStampsByRapport": 7.13333,
			"quantityPerMaterial": 2
		},
		{
			"_id": "WLbHP2wjXh36N26y2",
			"knifeNumber": 567,
			"radius": 2,
			"length": 94,
			"width": 110,
			"lengthBetweenStampsByRapport": 4.3,
			"quantityPerMaterial": 1
		},
		{
			"_id": "fazoF8TFktyLvNahe",
			"knifeNumber": 533,
			"radius": 5,
			"length": 95,
			"width": 70,
			"lengthBetweenStampsByRapport": 6.2,
			"quantityPerMaterial": 1
		},
		{
			"_id": "Qaog3eqecoehWzTbD",
			"knifeNumber": 251,
			"radius": 0,
			"length": 95,
			"width": 100,
			"lengthBetweenStampsByRapport": 10.0667,
			"quantityPerMaterial": 2
		},
		{
			"_id": "XTPmjgjsWhnBxZd5s",
			"knifeNumber": 162,
			"radius": 0,
			"length": 95,
			"width": 145,
			"lengthBetweenStampsByRapport": 7.39999,
			"quantityPerMaterial": 1
		},
		{
			"_id": "W3f8KYLuquM2EGRbA",
			"knifeNumber": 3,
			"radius": 3,
			"length": 97,
			"width": 73,
			"lengthBetweenStampsByRapport": 3.2,
			"quantityPerMaterial": 2
		},
		{
			"_id": "yzbC9dDpwfSuKw5mh",
			"knifeNumber": 60,
			"radius": 0,
			"length": 98,
			"width": 115,
			"lengthBetweenStampsByRapport": 24.7,
			"quantityPerMaterial": 1
		},
		{
			"_id": "j3uniMiDjXZYiiT9E",
			"knifeNumber": 276,
			"radius": 0,
			"length": 100,
			"width": 25,
			"lengthBetweenStampsByRapport": 3.575,
			"quantityPerMaterial": 2
		},
		{
			"_id": "R4zjA7jCFcYD3SAXh",
			"knifeNumber": 545,
			"radius": 2,
			"length": 100,
			"width": 40,
			"lengthBetweenStampsByRapport": 5.72,
			"quantityPerMaterial": 1
		},
		{
			"_id": "zeYSEfYLHnuJobEHt",
			"knifeNumber": 278,
			"radius": 4,
			"length": 100,
			"width": 50,
			"lengthBetweenStampsByRapport": 5.88,
			"quantityPerMaterial": 1
		},
		{
			"_id": "exbve5h8G8gcpWGrF",
			"knifeNumber": 578,
			"radius": 2,
			"length": 100,
			"width": 72.5,
			"lengthBetweenStampsByRapport": 3.7,
			"quantityPerMaterial": 1
		},
		{
			"_id": "q5FisKa9fPdz5XTmr",
			"knifeNumber": 580,
			"radius": 1.5,
			"length": 100,
			"width": 75,
			"lengthBetweenStampsByRapport": 7.55,
			"quantityPerMaterial": 1
		},
		{
			"_id": "cnHKkiw5pSeBsvf95",
			"knifeNumber": 127,
			"radius": 0,
			"length": 100,
			"width": 80,
			"lengthBetweenStampsByRapport": 2.55,
			"quantityPerMaterial": 2
		},
		{
			"_id": "XhSRqMbWDpbqJaCKM",
			"knifeNumber": 316,
			"radius": 2,
			"length": 100,
			"width": 90,
			"lengthBetweenStampsByRapport": 3.13333,
			"quantityPerMaterial": 2
		},
		{
			"_id": "sNQhv2T98bnFkFDpE",
			"knifeNumber": 548,
			"radius": 2,
			"length": 100,
			"width": 123,
			"lengthBetweenStampsByRapport": 16.7,
			"quantityPerMaterial": 2
		},
		{
			"_id": "zCrvoSgZnZRz9Y6Kg",
			"knifeNumber": 345,
			"radius": 6,
			"length": 100,
			"width": 130,
			"lengthBetweenStampsByRapport": 9.7,
			"quantityPerMaterial": 2
		},
		{
			"_id": "KrwL3JJK6FsQGf2gy",
			"knifeNumber": 287,
			"radius": 3,
			"length": 100,
			"width": 145,
			"lengthBetweenStampsByRapport": 7.39999,
			"quantityPerMaterial": 1
		},
		{
			"_id": "Wbugpc7ZexsQzaAu8",
			"knifeNumber": 421,
			"radius": 3,
			"length": 100,
			"width": 150,
			"lengthBetweenStampsByRapport": 2.39999,
			"quantityPerMaterial": 1
		},
		{
			"_id": "95WeJMgx5YTWGRirv",
			"knifeNumber": 246,
			"radius": 0,
			"length": 100,
			"width": 156,
			"lengthBetweenStampsByRapport": 9.10001,
			"quantityPerMaterial": 2
		},
		{
			"_id": "uRY4L8bxQC2FnfKrL",
			"knifeNumber": 202,
			"radius": 0,
			"length": 100,
			"width": 162,
			"lengthBetweenStampsByRapport": 3.10001,
			"quantityPerMaterial": 2
		},
		{
			"_id": "AAiPds8hoFkiTdncT",
			"knifeNumber": 609,
			"radius": 2,
			"length": 100,
			"width": 270,
			"lengthBetweenStampsByRapport": 9.39999,
			"quantityPerMaterial": 1
		},
		{
			"_id": "z7J87Rvumh75Py6hv",
			"knifeNumber": 295,
			"radius": 4,
			"length": 102,
			"width": 125,
			"lengthBetweenStampsByRapport": 14.7,
			"quantityPerMaterial": 1
		},
		{
			"_id": "DHAnSThgAPWMc8Nzr",
			"knifeNumber": 566,
			"radius": 2,
			"length": 103,
			"width": 110,
			"lengthBetweenStampsByRapport": 4.3,
			"quantityPerMaterial": 1
		},
		{
			"_id": "5pw552YetC6JJ9DCi",
			"knifeNumber": 460,
			"radius": 6,
			"length": 104,
			"width": 213,
			"lengthBetweenStampsByRapport": 15.6,
			"quantityPerMaterial": 1
		},
		{
			"_id": "jwMQ6gvobSLE8jqG4",
			"knifeNumber": 219,
			"radius": 0,
			"length": 105,
			"width": 110,
			"lengthBetweenStampsByRapport": 4.3,
			"quantityPerMaterial": 1
		},
		{
			"_id": "tWTMLCeHdonFYHSu3",
			"knifeNumber": 110,
			"radius": 3,
			"length": 105,
			"width": 149,
			"lengthBetweenStampsByRapport": 3.39999,
			"quantityPerMaterial": 1
		},
		{
			"_id": "wGud9ZTNhfZiEsJY4",
			"knifeNumber": 171,
			"radius": 3,
			"length": 105,
			"width": 149,
			"lengthBetweenStampsByRapport": 3.39999,
			"quantityPerMaterial": 2
		},
		{
			"_id": "nET89TmX2QgRfnekd",
			"knifeNumber": 373,
			"radius": 0.6,
			"length": 105,
			"width": 290,
			"lengthBetweenStampsByRapport": 14.8,
			"quantityPerMaterial": 2
		},
		{
			"_id": "ZZ3tJmoxQpDScBQdc",
			"knifeNumber": 85,
			"radius": 0,
			"length": 107,
			"width": 48,
			"lengthBetweenStampsByRapport": 2.8,
			"quantityPerMaterial": 1
		},
		{
			"_id": "jDpdy3iujoDX8uDbL",
			"knifeNumber": 228,
			"radius": 0,
			"length": 107,
			"width": 78,
			"lengthBetweenStampsByRapport": 4.55,
			"quantityPerMaterial": 1
		},
		{
			"_id": "TsqPkybJ48rJSbaLs",
			"knifeNumber": 499,
			"radius": 2,
			"length": 107,
			"width": 162,
			"lengthBetweenStampsByRapport": 3.10001,
			"quantityPerMaterial": 1
		},
		{
			"_id": "HjJCM6RLaZZHku8b3",
			"knifeNumber": 222,
			"radius": 0,
			"length": 108,
			"width": 61.5,
			"lengthBetweenStampsByRapport": 4.54,
			"quantityPerMaterial": 1
		},
		{
			"_id": "X9uTYsGE9FJavLbkS",
			"knifeNumber": 158,
			"radius": 0,
			"length": 110,
			"width": 40,
			"lengthBetweenStampsByRapport": 3.54286,
			"quantityPerMaterial": 1
		},
		{
			"_id": "nL2KP7D2q7Bvrkr3e",
			"knifeNumber": 597,
			"radius": 2,
			"length": 110,
			"width": 60,
			"lengthBetweenStampsByRapport": 6.04,
			"quantityPerMaterial": 1
		},
		{
			"_id": "dwBWfN3TrKawmHTjf",
			"knifeNumber": 207,
			"radius": 0,
			"length": 110,
			"width": 99,
			"lengthBetweenStampsByRapport": 2.6,
			"quantityPerMaterial": 1
		},
		{
			"_id": "x2tzBhjJQD2fxr2zH",
			"knifeNumber": 156,
			"radius": 0,
			"length": 110,
			"width": 110,
			"lengthBetweenStampsByRapport": 4.3,
			"quantityPerMaterial": 1
		},
		{
			"_id": "Diy6zESm3BXf4fBxM",
			"knifeNumber": 216,
			"radius": 3,
			"length": 110,
			"width": 135,
			"lengthBetweenStampsByRapport": 4.7,
			"quantityPerMaterial": 2
		},
		{
			"_id": "qKguyo6e7H6yHYx8b",
			"knifeNumber": 157,
			"radius": 0,
			"length": 110,
			"width": 200,
			"lengthBetweenStampsByRapport": 28.6,
			"quantityPerMaterial": 1
		},
		{
			"_id": "4Sn7fNfTc2aEZJtJP",
			"knifeNumber": 363,
			"radius": 6,
			"length": 111,
			"width": 50,
			"lengthBetweenStampsByRapport": 5.88,
			"quantityPerMaterial": 1
		},
		{
			"_id": "guqSZgiWn83HpHycG",
			"knifeNumber": 148,
			"radius": 0,
			"length": 111,
			"width": 105,
			"lengthBetweenStampsByRapport": 5.06667,
			"quantityPerMaterial": 1
		},
		{
			"_id": "JiSHo4iKkkoF9DK3Y",
			"knifeNumber": 406,
			"radius": 1,
			"length": 112,
			"width": 143,
			"lengthBetweenStampsByRapport": 9.39999,
			"quantityPerMaterial": 1
		},
		{
			"_id": "XYrAAKh3FQCeDfs2M",
			"knifeNumber": 242,
			"radius": 0,
			"length": 113,
			"width": 75,
			"lengthBetweenStampsByRapport": 7.55,
			"quantityPerMaterial": 1
		},
		{
			"_id": "mAupMFTZC6GBZ2prQ",
			"knifeNumber": 434,
			"radius": 2,
			"length": 115,
			"width": 45,
			"lengthBetweenStampsByRapport": 5.8,
			"quantityPerMaterial": 1
		},
		{
			"_id": "24zQwm7BeegykwiBL",
			"knifeNumber": 33,
			"radius": 0,
			"length": 115,
			"width": 75,
			"lengthBetweenStampsByRapport": 7.55,
			"quantityPerMaterial": 1
		},
		{
			"_id": "3h2uoe8yoE3iiCMqq",
			"knifeNumber": 259,
			"radius": 2,
			"length": 115,
			"width": 78.5,
			"lengthBetweenStampsByRapport": 4.05,
			"quantityPerMaterial": 1
		},
		{
			"_id": "drDfeFwLdnrjq6x5b",
			"knifeNumber": 339,
			"radius": 3,
			"length": 115,
			"width": 135,
			"lengthBetweenStampsByRapport": 4.7,
			"quantityPerMaterial": 1
		},
		{
			"_id": "Cmgc5ftjQf9igRSPQ",
			"knifeNumber": 364,
			"radius": 0,
			"length": 117,
			"width": 80,
			"lengthBetweenStampsByRapport": 2.55,
			"quantityPerMaterial": 2
		},
		{
			"_id": "2GSnNggJ5WMjyLPNQ",
			"knifeNumber": 374,
			"radius": 0.6,
			"length": 117,
			"width": 99,
			"lengthBetweenStampsByRapport": 2.6,
			"quantityPerMaterial": 2
		},
		{
			"_id": "nkanKjbt2femXxfba",
			"knifeNumber": 407,
			"radius": 4,
			"length": 117,
			"width": 210.4,
			"lengthBetweenStampsByRapport": 18.2,
			"quantityPerMaterial": 1
		},
		{
			"_id": "q3dtpuzaQgPxBPsiw",
			"knifeNumber": 258,
			"radius": 2,
			"length": 120,
			"width": 60,
			"lengthBetweenStampsByRapport": 6.04,
			"quantityPerMaterial": 2
		},
		{
			"_id": "TRPNoGRoK53Q7wYKW",
			"knifeNumber": 218,
			"radius": 0,
			"length": 120,
			"width": 62,
			"lengthBetweenStampsByRapport": 4.04,
			"quantityPerMaterial": 1
		},
		{
			"_id": "7nMy9D3Jy55vCdLCc",
			"knifeNumber": 336,
			"radius": 11,
			"length": 120,
			"width": 70,
			"lengthBetweenStampsByRapport": 6.2,
			"quantityPerMaterial": 1
		},
		{
			"_id": "KPABWxkJvTxmTBKRB",
			"knifeNumber": 29,
			"radius": 0,
			"length": 120,
			"width": 79,
			"lengthBetweenStampsByRapport": 3.55,
			"quantityPerMaterial": 1
		},
		{
			"_id": "9Zwnb2bcAnrD6y3Fs",
			"knifeNumber": 34,
			"radius": 0,
			"length": 120,
			"width": 90,
			"lengthBetweenStampsByRapport": 3.13333,
			"quantityPerMaterial": 1
		},
		{
			"_id": "3m3vK48tDpodPB6M2",
			"knifeNumber": 49,
			"radius": 0,
			"length": 120,
			"width": 99,
			"lengthBetweenStampsByRapport": 2.6,
			"quantityPerMaterial": 1
		},
		{
			"_id": "bsKNsQuDrzPNQbowG",
			"knifeNumber": 16,
			"radius": 0,
			"length": 120,
			"width": 125,
			"lengthBetweenStampsByRapport": 14.7,
			"quantityPerMaterial": 1
		},
		{
			"_id": "hTr9kgZC8Xg3FS8Kx",
			"knifeNumber": 294,
			"radius": 4,
			"length": 120,
			"width": 125,
			"lengthBetweenStampsByRapport": 14.7,
			"quantityPerMaterial": 1
		},
		{
			"_id": "h9mmZpGFFvaigZjbS",
			"knifeNumber": 26,
			"radius": 3,
			"length": 120,
			"width": 160,
			"lengthBetweenStampsByRapport": 5.10001,
			"quantityPerMaterial": 1
		},
		{
			"_id": "xkXanyWJtWR55dAsD",
			"knifeNumber": 114,
			"radius": 4,
			"length": 120,
			"width": 224,
			"lengthBetweenStampsByRapport": 4.60001,
			"quantityPerMaterial": 1
		},
		{
			"_id": "P9MAaPoK78dbdjpuk",
			"knifeNumber": 325,
			"radius": 2,
			"length": 120,
			"width": 230,
			"lengthBetweenStampsByRapport": 49.4,
			"quantityPerMaterial": 1
		},
		{
			"_id": "3DEypFu3c2Fw8MWkW",
			"knifeNumber": 619,
			"radius": 2,
			"length": 122,
			"width": 210,
			"lengthBetweenStampsByRapport": 18.6,
			"quantityPerMaterial": 1
		},
		{
			"_id": "ymN4NjKBPXyd7bxrL",
			"knifeNumber": 138,
			"radius": 0,
			"length": 123,
			"width": 70,
			"lengthBetweenStampsByRapport": 6.2,
			"quantityPerMaterial": 1
		},
		{
			"_id": "m3xaGk5L6NFzFsndb",
			"knifeNumber": 337,
			"radius": 11,
			"length": 125,
			"width": 75,
			"lengthBetweenStampsByRapport": 18.1333,
			"quantityPerMaterial": 1
		},
		{
			"_id": "M6YBwfqJYBcGE88a6",
			"knifeNumber": 204,
			"radius": 0,
			"length": 125,
			"width": 85,
			"lengthBetweenStampsByRapport": 8.13333,
			"quantityPerMaterial": 1
		},
		{
			"_id": "upBnjKENJQy83dBLm",
			"knifeNumber": 187,
			"radius": 0,
			"length": 125,
			"width": 106,
			"lengthBetweenStampsByRapport": 4.06667,
			"quantityPerMaterial": 1
		},
		{
			"_id": "bRjNSBFY7Ps9xG9ji",
			"knifeNumber": 569,
			"radius": 2,
			"length": 126,
			"width": 30,
			"lengthBetweenStampsByRapport": 2.65714,
			"quantityPerMaterial": 1
		},
		{
			"_id": "M3kscR9eCpkeAZKMf",
			"knifeNumber": 22,
			"radius": 0,
			"length": 126,
			"width": 96,
			"lengthBetweenStampsByRapport": 5.6,
			"quantityPerMaterial": 1
		},
		{
			"_id": "6nacSB6Y9QDavbnG7",
			"knifeNumber": 290,
			"radius": 3,
			"length": 126,
			"width": 277,
			"lengthBetweenStampsByRapport": 2.39999,
			"quantityPerMaterial": 1
		},
		{
			"_id": "tqv8vBATAqQ6pCPTS",
			"knifeNumber": 610,
			"radius": 3,
			"length": 127,
			"width": 143,
			"lengthBetweenStampsByRapport": 9.39999,
			"quantityPerMaterial": 1
		},
		{
			"_id": "2uEjFW4NKBh5qTZtt",
			"knifeNumber": 143,
			"radius": 0,
			"length": 128,
			"width": 212,
			"lengthBetweenStampsByRapport": 16.6,
			"quantityPerMaterial": 1
		},
		{
			"_id": "pPqkiwsLfwsM2LHnJ",
			"knifeNumber": 239,
			"radius": 0,
			"length": 130,
			"width": 70,
			"lengthBetweenStampsByRapport": 6.2,
			"quantityPerMaterial": 1
		},
		{
			"_id": "MpCezqbquFAFPvYF3",
			"knifeNumber": 185,
			"radius": 0,
			"length": 130,
			"width": 146,
			"lengthBetweenStampsByRapport": 6.39999,
			"quantityPerMaterial": 1
		},
		{
			"_id": "4qavLKs7rnYwZoai2",
			"knifeNumber": 282,
			"radius": 3,
			"length": 130,
			"width": 158,
			"lengthBetweenStampsByRapport": 7.10001,
			"quantityPerMaterial": 1
		},
		{
			"_id": "Q4uJTArPkZjYCip3i",
			"knifeNumber": 524,
			"radius": 0,
			"length": 130,
			"width": 220,
			"lengthBetweenStampsByRapport": 8.60001,
			"quantityPerMaterial": 1
		},
		{
			"_id": "fBiz6tZMtmvJePX5F",
			"knifeNumber": 416,
			"radius": 20,
			"length": 130,
			"width": 272,
			"lengthBetweenStampsByRapport": 7.39999,
			"quantityPerMaterial": 1
		},
		{
			"_id": "bQYFZeyYzwLLaDibK",
			"knifeNumber": 412,
			"radius": 3,
			"length": 130,
			"width": 327,
			"lengthBetweenStampsByRapport": 3.20001,
			"quantityPerMaterial": 1
		},
		{
			"_id": "kpMbssSZTeewYwWvC",
			"knifeNumber": 418,
			"radius": 3,
			"length": 136,
			"width": 160,
			"lengthBetweenStampsByRapport": 5.10001,
			"quantityPerMaterial": 1
		},
		{
			"_id": "GRfqxF7F8yGwtGJKL",
			"knifeNumber": 529,
			"radius": 1,
			"length": 140,
			"width": 85,
			"lengthBetweenStampsByRapport": 8.13333,
			"quantityPerMaterial": 1
		},
		{
			"_id": "btorLvTg8BzkenRAF",
			"knifeNumber": 347,
			"radius": 2,
			"length": 140,
			"width": 140,
			"lengthBetweenStampsByRapport": 12.4,
			"quantityPerMaterial": 1
		},
		{
			"_id": "ArmHkK8GnLekfb7Gc",
			"knifeNumber": 32,
			"radius": 0,
			"length": 140,
			"width": 207,
			"lengthBetweenStampsByRapport": 21.6,
			"quantityPerMaterial": 1
		},
		{
			"_id": "AjyGeetNDrDqinM3d",
			"knifeNumber": 618,
			"radius": 2,
			"length": 142,
			"width": 256,
			"lengthBetweenStampsByRapport": 23.4,
			"quantityPerMaterial": 1
		},
		{
			"_id": "fgM3nGAP5yooFnSsf",
			"knifeNumber": 596,
			"radius": 0.6,
			"length": 143,
			"width": 320,
			"lengthBetweenStampsByRapport": 10.2,
			"quantityPerMaterial": 1
		},
		{
			"_id": "2bHqBhPixeMgB3eAP",
			"knifeNumber": 577,
			"radius": 2,
			"length": 145,
			"width": 80,
			"lengthBetweenStampsByRapport": 2.55,
			"quantityPerMaterial": 1
		},
		{
			"_id": "E2bX44ZmTqWKiBbad",
			"knifeNumber": 284,
			"radius": 1,
			"length": 148,
			"width": 210,
			"lengthBetweenStampsByRapport": 18.6,
			"quantityPerMaterial": 1
		},
		{
			"_id": "bxkAfFx7avC6Lghta",
			"knifeNumber": 291,
			"radius": 3,
			"length": 148,
			"width": 210,
			"lengthBetweenStampsByRapport": 18.6,
			"quantityPerMaterial": 1
		},
		{
			"_id": "XusKe2gT7zJLzvTLz",
			"knifeNumber": 473,
			"radius": 3,
			"length": 149,
			"width": 99,
			"lengthBetweenStampsByRapport": 2.6,
			"quantityPerMaterial": 1
		},
		{
			"_id": "5eSaD2pQP69iyeZ8o",
			"knifeNumber": 377,
			"radius": 0,
			"length": 150,
			"width": 60,
			"lengthBetweenStampsByRapport": 6.04,
			"quantityPerMaterial": 1
		},
		{
			"_id": "Ff89G3kuavc74DyCc",
			"knifeNumber": 56,
			"radius": 0,
			"length": 150,
			"width": 110,
			"lengthBetweenStampsByRapport": 4.3,
			"quantityPerMaterial": 1
		},
		{
			"_id": "7hd8YjiqPgSQCjcCN",
			"knifeNumber": 335,
			"radius": 0.6,
			"length": 150,
			"width": 250,
			"lengthBetweenStampsByRapport": 29.4,
			"quantityPerMaterial": 1
		},
		{
			"_id": "Z7QB2pyScGjd8kBXP",
			"knifeNumber": 390,
			"radius": 1,
			"length": 162,
			"width": 96,
			"lengthBetweenStampsByRapport": 5.6,
			"quantityPerMaterial": 1
		},
		{
			"_id": "vW8tfKwqhdgyoEfdG",
			"knifeNumber": 159,
			"radius": 0,
			"length": 165,
			"width": 65,
			"lengthBetweenStampsByRapport": 4.85,
			"quantityPerMaterial": 1
		},
		{
			"_id": "6383zCXAWcaDJKe3o",
			"knifeNumber": 536,
			"radius": 2,
			"length": 165,
			"width": 110,
			"lengthBetweenStampsByRapport": 4.3,
			"quantityPerMaterial": 1
		},
		{
			"_id": "vw3xEaQ4GJQhGLiDy",
			"knifeNumber": 253,
			"radius": 0,
			"length": 165,
			"width": 150,
			"lengthBetweenStampsByRapport": 15.1,
			"quantityPerMaterial": 1
		},
		{
			"_id": "R45JrTSKqZchGcgbp",
			"knifeNumber": 14,
			"radius": 0,
			"length": 168,
			"width": 146,
			"lengthBetweenStampsByRapport": 6.39999,
			"quantityPerMaterial": 1
		},
		{
			"_id": "Zy3mCHueCYEXv9eFq",
			"knifeNumber": 165,
			"radius": 0,
			"length": 170,
			"width": 135,
			"lengthBetweenStampsByRapport": 4.7,
			"quantityPerMaterial": 1
		},
		{
			"_id": "RkLQcqCaCZ9mFLuab",
			"knifeNumber": 559,
			"radius": 2,
			"length": 170,
			"width": 140,
			"lengthBetweenStampsByRapport": 12.4,
			"quantityPerMaterial": 1
		},
		{
			"_id": "wSHAhdxR7haimE92m",
			"knifeNumber": 83,
			"radius": 0,
			"length": 170,
			"width": 190,
			"lengthBetweenStampsByRapport": 38.6,
			"quantityPerMaterial": 1
		},
		{
			"_id": "wKbuzqGicZ26zhNGb",
			"knifeNumber": 164,
			"radius": 2,
			"length": 170,
			"width": 273,
			"lengthBetweenStampsByRapport": 6.39999,
			"quantityPerMaterial": 1
		},
		{
			"_id": "wTtmhzkLvtx6BTwaL",
			"knifeNumber": 324,
			"radius": 13,
			"length": 170.5,
			"width": 170.5,
			"lengthBetweenStampsByRapport": 58.1,
			"quantityPerMaterial": 1
		},
		{
			"_id": "pgTYaEKNuh8zzdiuX",
			"knifeNumber": 301,
			"radius": 1,
			"length": 180,
			"width": 60,
			"lengthBetweenStampsByRapport": 9.85,
			"quantityPerMaterial": 1
		},
		{
			"_id": "srJCdEumZ5K8WEQo9",
			"knifeNumber": 450,
			"radius": 3,
			"length": 180,
			"width": 90,
			"lengthBetweenStampsByRapport": 3.13333,
			"quantityPerMaterial": 1
		},
		{
			"_id": "KsxPJQt5EmnZRYrgW",
			"knifeNumber": 328,
			"radius": 2,
			"length": 180,
			"width": 107,
			"lengthBetweenStampsByRapport": 3.06667,
			"quantityPerMaterial": 1
		},
		{
			"_id": "jPJZ5vBtEsEutgaDG",
			"knifeNumber": 25,
			"radius": 3,
			"length": 182,
			"width": 142,
			"lengthBetweenStampsByRapport": 10.4,
			"quantityPerMaterial": 1
		},
		{
			"_id": "esmGThQNDWMBTJESB",
			"knifeNumber": 196,
			"radius": 4,
			"length": 185,
			"width": 85,
			"lengthBetweenStampsByRapport": 8.13333,
			"quantityPerMaterial": 1
		},
		{
			"_id": "ZRzfsSwxx7YX6dMya",
			"knifeNumber": 50,
			"radius": 0,
			"length": 190,
			"width": 25,
			"lengthBetweenStampsByRapport": 3.575,
			"quantityPerMaterial": 1
		},
		{
			"_id": "AsqF4A9vHyeT2MQen",
			"knifeNumber": 53,
			"radius": 0,
			"length": 190,
			"width": 45,
			"lengthBetweenStampsByRapport": 2.17143,
			"quantityPerMaterial": 1
		},
		{
			"_id": "3sQsLe9L89MmTQHCP",
			"knifeNumber": 192,
			"radius": 0,
			"length": 200,
			"width": 80,
			"lengthBetweenStampsByRapport": 13.1333,
			"quantityPerMaterial": 1
		},
		{
			"_id": "jJvfqyBnMhX2neAqk",
			"knifeNumber": 398,
			"radius": 1,
			"length": 200,
			"width": 90,
			"lengthBetweenStampsByRapport": 3.13333,
			"quantityPerMaterial": 1
		},
		{
			"_id": "by9zj9rZbtyQcD68Q",
			"knifeNumber": 112,
			"radius": 0,
			"length": 200,
			"width": 100,
			"lengthBetweenStampsByRapport": 10.0667,
			"quantityPerMaterial": 1
		},
		{
			"_id": "jkzr4dTh33ZAKeehJ",
			"knifeNumber": 311,
			"radius": 2,
			"length": 200,
			"width": 200,
			"lengthBetweenStampsByRapport": 28.6,
			"quantityPerMaterial": 1
		},
		{
			"_id": "XuDZrdaAY9CEvQJgs",
			"knifeNumber": 116,
			"radius": 0,
			"length": 200,
			"width": 250,
			"lengthBetweenStampsByRapport": 29.4,
			"quantityPerMaterial": 1
		},
		{
			"_id": "dyLyxz97arRpKkLTp",
			"knifeNumber": 197,
			"radius": 3,
			"length": 203,
			"width": 143,
			"lengthBetweenStampsByRapport": 9.39999,
			"quantityPerMaterial": 1
		},
		{
			"_id": "BbrwiJxkiKbSPWz5Q",
			"knifeNumber": 359,
			"radius": 3,
			"length": 210,
			"width": 148.5,
			"lengthBetweenStampsByRapport": 3.89999,
			"quantityPerMaterial": 1
		},
		{
			"_id": "qah2jmd5QGfsr6TRg",
			"knifeNumber": 310,
			"radius": 2,
			"length": 210,
			"width": 297,
			"lengthBetweenStampsByRapport": 7.79999,
			"quantityPerMaterial": 1
		},
		{
			"_id": "zySo2FoKQTZ8SCLwn",
			"knifeNumber": 31,
			"radius": 0,
			"length": 215,
			"width": 207,
			"lengthBetweenStampsByRapport": 21.6,
			"quantityPerMaterial": 1
		},
		{
			"_id": "Eo7EwSZKaSq24QsxH",
			"knifeNumber": 225,
			"radius": 0,
			"length": 220,
			"width": 180,
			"lengthBetweenStampsByRapport": 48.6,
			"quantityPerMaterial": 1
		},
		{
			"_id": "sGFFuHhB7hqMRPGqj",
			"knifeNumber": 224,
			"radius": 0,
			"length": 220,
			"width": 320,
			"lengthBetweenStampsByRapport": 10.2,
			"quantityPerMaterial": 1
		},
		{
			"_id": "PdeFowghAR6hqSYqA",
			"knifeNumber": 515,
			"radius": 1,
			"length": 230,
			"width": 40,
			"lengthBetweenStampsByRapport": 5.72,
			"quantityPerMaterial": 1
		},
		{
			"_id": "g7c3T5uv9ogXnvg8A",
			"knifeNumber": 554,
			"radius": 1,
			"length": 230,
			"width": 45,
			"lengthBetweenStampsByRapport": 5.8,
			"quantityPerMaterial": 1
		},
		{
			"_id": "ZAnoXPsFzomSgCbKr",
			"knifeNumber": 323,
			"radius": 18,
			"length": 230,
			"width": 230,
			"lengthBetweenStampsByRapport": 49.4,
			"quantityPerMaterial": 1
		},
		{
			"_id": "5YDmWAekfS5cDZqK6",
			"knifeNumber": 101,
			"radius": 0,
			"length": 230,
			"width": 300,
			"lengthBetweenStampsByRapport": 4.79999,
			"quantityPerMaterial": 1
		}
	]
}
